Final Assignment: Roman Emperors
…
log-Likelihood

-26.706

-23.286

The predictors were only significant in the case of the predictive model of dying naturally, and the AIC numbers were smaller for the fitted mosel as well (fitted model: 52.224, null model: 55.413).

#creating a tibble with the predicted and observed values and the predictive variables
natural_prob <- predict(model_natural, data = emperors_principate, type = "response")
natural_odds <- natural_prob / (1 - natural_prob)
tibble(name = emperors_principate$name, rise = emperors_principate$rise_recoded, age_reign_start = emperors_principate$age_reign_start, probability = natural_prob, odds = natural_odds, observed = emperors_principate$died_naturally)

## # A tibble: 44 x 6
##    name      rise       age_reign_start probability   odds observed
##    <chr>     <fct>                <dbl>       <dbl>  <dbl> <fct>   
##  1 Augustus  Birthright              36      0.444  0.800  0       
##  2 Tiberius  Birthright              55      0.759  3.15   0       
##  3 Caligula  Birthright              25      0.266  0.362  0       
##  4 Claudius  Birthright              32      0.375  0.599  0       
##  5 Nero      Birthright              17      0.169  0.203  0       
##  6 Galba     Other                   66      0.382  0.617  0       
##  7 Otho      Other                   37      0.0709 0.0763 0       
##  8 Vitellius Other                   54      0.206  0.260  0       
##  9 Vespasian Other                   60      0.286  0.400  1       
## 10 Titus     Birthright              40      0.516  1.07   1       
## #  with 34 more rows
…
